3;7;166;0;176
87;83;82;6;252
62;68;573;128;703
311;319;707;201;1337
476;485;2899;577;3860
1647;1657;4816;1133;8120
3023;3026;14525;3204;20574
8566;8395;27549;6817;44510
17040;17068;75382;17219;109490
44233;44642;158594;37834;247469
97019;96152;402634;92132;595805
239538;238955;871293;209444;1349786
529279;528187;2149532;501764;3206998
1283833;1282419;4823419;1142510;7389671
2914756;2912049;11637542;2705376;17464347
6964180;6965984;26589548;6239559;40519712
