3;7;154;0;164
71;87;82;6;240
66;55;511;125;632
267;291;497;199;1055
355;355;2195;544;2905
1298;1195;3474;956;5967
2297;2154;10944;2472;15395
6438;6308;20100;5121;32846
12494;12696;58427;12777;83617
34178;34264;115851;27952;184293
71168;71234;308260;69843;450662
182640;181918;653557;155947;1018115
397882;397121;1632805;379059;2427808
972714;974166;3635327;859987;5582207
2198715;2197308;8823777;2046171;13219800
5276360;5275386;20035306;4714225;30587052
