6;4;93;0;103
49;49;22;5;120
28;26;396;71;450
195;231;314;95;740
215;244;1865;376;2324
1015;1056;2426;629;4497
1628;1567;9086;1931;12281
5179;5295;15698;3738;26172
9696;9970;47016;10244;66682
27423;27490;93527;22013;148440
57363;57271;244714;55819;359348
145157;145186;526462;124824;816805
320112;319665;1313437;301852;1953214
782513;783714;2926290;688839;4492517
1767761;1770034;7085614;1643561;10623409
4236201;4239756;16159692;3791013;24635649
